…
And their frequencies. Most data records are available for all years, A
handful, mostly wind related, are inly available more recently.

``` r
longannualdata %>%
  group_by(datatype) %>%
  summarize(n=n())
#> # A tibble: 47 x 2
#>    datatype     n
#>    <chr>    <int>
#>  1 AWND        36
#>  2 CDSD        79
#>  3 CLDD        79
#>  4 DP01        79
#>  5 DP10        79
#>  6 DP1X        79
#>  7 DSND        74
#>  8 DSNW        78
#>  9 DT00        79
#> 10 DT32        79
#> # ... with 37 more rows
```
…
